<?xml version="1.0" standalone="no"?>
<!DOCTYPE svg PUBLIC "-//W3C//DTD SVG 1.1//EN" "http://www.w3.org/Graphics/SVG/1.1/DTD/svg11.dtd" >
<svg xmlns="http://www.w3.org/2000/svg">
<metadata>Generated by IcoMoon</metadata>
<defs>
<font id="icomoon" horiz-adv-x="1024">
<font-face units-per-em="1024" ascent="960" descent="-64" />
<missing-glyph horiz-adv-x="1024" />
<glyph unicode="&#x20;" horiz-adv-x="512" d="" />
<glyph unicode="&#xe600;" glyph-name="arrow" d="M931.84 658.944c-6.144 0-12.288-2.048-16.384-6.144l-399.36-378.88-399.36 378.88c-4.096 4.096-10.24 6.144-16.384 6.144-12.288 0-22.528-10.24-22.528-22.528 0-6.144 2.048-12.288 6.144-16.384l413.696-393.216c4.096-4.096 10.24-6.144 16.384-6.144s12.288 2.048 16.384 6.144l413.696 393.216c4.096 4.096 6.144 10.24 6.144 16.384 4.096 12.288-6.144 22.528-18.432 22.528z" />
<glyph unicode="&#xe601;" glyph-name="more_icon" d="M309.248 448c0-68.996-55.932-124.928-124.928-124.928s-124.928 55.932-124.928 124.928c0 68.996 55.932 124.928 124.928 124.928s124.928-55.932 124.928-124.928zM636.928 448c0-68.996-55.932-124.928-124.928-124.928s-124.928 55.932-124.928 124.928c0 68.996 55.932 124.928 124.928 124.928s124.928-55.932 124.928-124.928zM964.608 448c0-68.996-55.932-124.928-124.928-124.928s-124.928 55.932-124.928 124.928c0 68.996 55.932 124.928 124.928 124.928s124.928-55.932 124.928-124.928z" />
<glyph unicode="&#xe602;" glyph-name="profile_icon" d="M616.448 310.784c-20.48 4.096-20.48 61.44-20.48 61.44s61.44 61.44 73.728 141.312c36.864 0 57.344 86.016 22.528 116.736 2.048 32.768 45.056 251.904-180.224 251.904s-182.272-219.136-180.224-251.904c-36.864-30.72-14.336-116.736 22.528-116.736 14.336-81.92 73.728-141.312 73.728-141.312s0-57.344-20.48-61.44c-67.584-10.24-317.44-120.832-317.44-241.664h843.776c0 120.832-249.856 231.424-317.44 241.664z" />
<glyph unicode="&#xe603;" glyph-name="time_icon-01" d="M538.624 716.288v55.296h108.544v55.296c0 30.72-24.576 53.248-53.248 53.248h-163.84c-30.72 0-53.248-24.576-53.248-53.248v-53.248h108.544v-55.296c-182.272-14.336-323.584-165.888-323.584-352.256 0-194.56 157.696-350.208 350.208-350.208 194.56 0 350.208 157.696 350.208 350.208 0 186.368-141.312 337.92-323.584 350.208zM702.464 175.616c-51.2-51.2-118.784-79.872-190.464-79.872s-139.264 28.672-190.464 79.872c-51.2 51.2-79.872 118.784-79.872 190.464s28.672 139.264 79.872 190.464c49.152 49.152 112.64 77.824 182.272 79.872l-18.432-264.192c-2.048-22.528 10.24-32.768 26.624-32.768s28.672 10.24 26.624 32.768l-18.432 264.192c69.632-2.048 133.12-30.72 182.272-79.872 51.2-51.2 79.872-118.784 79.872-190.464s-28.672-139.264-79.872-190.464z" />
<glyph unicode="&#xe604;" glyph-name="workouts_icon" d="M980.992 464.384h-47.104v102.4c0 22.528-18.432 43.008-40.96 43.008-4.096 0-10.24 0-14.336-2.048v47.104c0 38.912-30.72 71.68-69.632 71.68s-69.632-32.768-69.632-71.68v-188.416h-454.656v188.416c0 38.912-30.72 71.68-69.632 71.68s-69.632-32.768-69.632-71.68v-47.104c-4.096 2.048-8.192 2.048-14.336 2.048-22.528 0-40.96-18.432-40.96-43.008v-102.4h-47.104c-20.48 0-36.864-16.384-36.864-36.864s16.384-36.864 36.864-36.864h47.104v-102.4c0-22.528 18.432-43.008 40.96-43.008 4.096 0 10.24 0 14.336 2.048v-45.056c0-38.912 30.72-71.68 69.632-71.68s69.632 32.768 69.632 71.68v188.416h452.608v-188.416c0-38.912 30.72-71.68 69.632-71.68s69.632 32.768 69.632 71.68v47.104c4.096-2.048 8.192-2.048 14.336-2.048 22.528 0 40.96 18.432 40.96 43.008v102.4h47.104c20.48 0 36.864 16.384 36.864 36.864 2.048 18.432-14.336 34.816-34.816 34.816z" />
</font></defs></svg>