<?xml version="1.0" encoding="utf-8"?>
<!-- Generator: Adobe Illustrator 18.1.0, SVG Export Plug-In . SVG Version: 6.00 Build 0)  -->
<!DOCTYPE svg PUBLIC "-//W3C//DTD SVG 1.1//EN" "http://www.w3.org/Graphics/SVG/1.1/DTD/svg11.dtd">
<svg version="1.1" id="Layer_1" xmlns="http://www.w3.org/2000/svg" xmlns:xlink="http://www.w3.org/1999/xlink" x="0px" y="0px"
	 width="50px" height="50px" viewBox="0 0 50 50" enable-background="new 0 0 50 50" xml:space="preserve">
<path d="M30.1,31.7c-1-0.2-1-3-1-3s3-3,3.6-6.9c1.8,0,2.8-4.2,1.1-5.7C33.9,14.5,36,3.8,25,3.8s-8.9,10.7-8.8,12.3
	c-1.8,1.5-0.7,5.7,1.1,5.7c0.7,4,3.6,6.9,3.6,6.9s0,2.8-1,3c-3.3,0.5-15.5,5.9-15.5,11.8H25h20.6C45.6,37.6,33.4,32.2,30.1,31.7z"/>
</svg>
